<svg xmlns="http://www.w3.org/2000/svg" xmlns:xlink="http://www.w3.org/1999/xlink" width="931" height="607.779" viewBox="0 0 931 607.779">
  <defs>
    <clipPath id="clip-path">
      <circle id="Ellipse_17" data-name="Ellipse 17" cx="91.529" cy="91.529" r="91.529" fill="none"/>
    </clipPath>
    <clipPath id="clip-path-2">
      <circle id="Ellipse_20" data-name="Ellipse 20" cx="93.384" cy="93.384" r="93.384" fill="none"/>
    </clipPath>
  </defs>
  <g id="Groupe_2448" data-name="Groupe 2448" transform="translate(-785 -3134)">
    <g id="Groupe_931" data-name="Groupe 931" transform="translate(703.953 3025.567)">
      <g id="Groupe_930" data-name="Groupe 930" transform="translate(93.732 108.433)">
        <text id="Mouillez_vos_mains_appliqué_du_savon" data-name="Mouillez vos mains &amp; 
appliqué du savon" transform="translate(96 215.931)" font-size="19" font-family="Europa-Regular" letter-spacing="0.034em"><tspan x="-95.599" y="0">Mouillez vos mains &amp; </tspan><tspan x="-79.696" y="18">appliqué du savon</tspan></text>
        <g id="Groupe_929" data-name="Groupe 929" transform="translate(11.573 3.487)">
          <g id="Groupe_928" data-name="Groupe 928" clip-path="url(#clip-path)">
            <circle id="Ellipse_16" data-name="Ellipse 16" cx="91.529" cy="91.529" r="91.529" fill="#e4f1fb" opacity="0.35"/>
            <g id="Groupe_922" data-name="Groupe 922" transform="translate(7.392 60.356)">
              <g id="Groupe_921" data-name="Groupe 921">
                <path id="Tracé_410" data-name="Tracé 410" d="M184.238,221.389c7.358-17.156,11.063-26.765,11.063-26.765s-.433-6.878-5.633-2.159c-7.389,6.706-14.92,25.961-16.526,26.886-3.284,1.891,17.5-41.491,16.434-46.514-.843-3.976-5.689-6.474-11.063,3.97-4.965,9.646-13.477,33.106-14.525,31.9-1.449-1.67,7.349-34.6,9.975-46.019,1.054-4.585-8.458-9.111-11.473,1.75-3.106,11.185-10.769,42.341-12.332,42.749-1.054.275-2.036-10.923-.6-20.18,3.523-22.687,2.387-25.67-2.557-26.44-8.549-1.333-10.512,68.586-19.262,59.871-1.012-1.006-.435-6.532.329-11.018,1.847-10.841-2.2-20.457-7.681-20.723s-1.644,4.245-4.528,15.509c-2.467,9.641-1.325,26.153.141,32.915,1.572,7.251,8.185,14.813,9.534,20.753,3.212,14.137-20.492,53.064-20.492,53.064l43.31,11.676s8.5-47.232,12.094-56.476S175.7,241.292,184.238,221.389Z" transform="translate(-105.043 -157.723)" fill="#e6b183"/>
                <path id="Tracé_411" data-name="Tracé 411" d="M154.533,237.651s-8.677,3.842-21.8,1.944C132.73,239.6,146.474,245.543,154.533,237.651Z" transform="translate(-96.868 -134.122)" fill="#e6b183" opacity="0.4" style="mix-blend-mode: multiply;isolation: isolate"/>
                <path id="Tracé_412" data-name="Tracé 412" d="M129.254,207.758s8.228,16.276,5.181,34.751C134.435,242.509,141.959,219.728,129.254,207.758Z" transform="translate(-97.894 -142.949)" fill="#e6b183" opacity="0.4" style="mix-blend-mode: multiply;isolation: isolate"/>
                <path id="Tracé_413" data-name="Tracé 413" d="M136.536,202.272s18.974,9.79,26.1,9.555C162.638,211.827,149.059,213.521,136.536,202.272Z" transform="translate(-95.744 -144.569)" fill="#e6b183" opacity="0.4" style="mix-blend-mode: multiply;isolation: isolate"/>
              </g>
            </g>
            <g id="Groupe_924" data-name="Groupe 924" transform="translate(74.621 61.171)">
              <g id="Groupe_923" data-name="Groupe 923">
                <path id="Tracé_414" data-name="Tracé 414" d="M174.22,226.466c-11.268-14.883-17.173-23.32-17.173-23.32s-1.234-6.781,4.948-3.451c8.786,4.732,20.724,21.613,22.505,22.126,3.642,1.045-26.958-36.069-27.133-41.2-.139-4.062,3.965-7.651,11.692,1.194,7.138,8.171,21.04,28.9,21.767,27.471,1.006-1.967-15.451-31.819-20.745-42.272-2.126-4.2,6.02-10.876,11.559-1.06,5.7,10.111,20.631,38.512,22.246,38.532,1.089.013-.649-11.091-4.27-19.733-8.873-21.174-8.488-24.342-3.873-26.28,7.978-3.348,26.69,64.048,33.089,53.487.74-1.22-1.149-6.447-2.967-10.616-4.4-10.08-2.784-20.386,2.474-21.963s2.615,3.725,8.123,13.968c4.714,8.764,7.573,25.066,7.775,31.983.218,7.417-4.383,16.346-4.267,22.437.281,14.494,27.579,52.193,27.579,52.193L227.972,315.2s-14.2-42.912-19.9-51.023S187.29,243.735,174.22,226.466Z" transform="translate(-156.946 -158.352)" fill="#e6b183"/>
                <path id="Tracé_415" data-name="Tracé 415" d="M193.814,237.582s9.347,1.644,21.632-3.355C215.446,234.227,203.534,243.3,193.814,237.582Z" transform="translate(-146.061 -135.948)" fill="#e6b183" opacity="0.4" style="mix-blend-mode: multiply;isolation: isolate"/>
                <path id="Tracé_416" data-name="Tracé 416" d="M207.135,202.918s-4.072,17.776,3.326,34.977C210.462,237.9,197.681,217.591,207.135,202.918Z" transform="translate(-143.156 -145.193)" fill="#e6b183" opacity="0.4" style="mix-blend-mode: multiply;isolation: isolate"/>
                <path id="Tracé_417" data-name="Tracé 417" d="M203.206,199.344s-16.064,14.063-23.039,15.548C180.167,214.892,193.756,213.273,203.206,199.344Z" transform="translate(-150.09 -146.248)" fill="#e6b183" opacity="0.4" style="mix-blend-mode: multiply;isolation: isolate"/>
              </g>
            </g>
            <path id="Tracé_418" data-name="Tracé 418" d="M148.228,213.151a4.946,4.946,0,0,0-2.644.995,6.135,6.135,0,0,0-1.48,1.382,4.859,4.859,0,0,0-.8,3.813,5.51,5.51,0,0,0,2.149,3.28,5.85,5.85,0,1,0,5.993-9.992,4.865,4.865,0,0,0-2.19-.51,5.138,5.138,0,0,0-4.236,2.816,8.877,8.877,0,0,0-.794,5.191" transform="translate(-86.383 -81.305)" fill="#fdf8ff" stroke="#fdf8ff" stroke-miterlimit="10" stroke-width="1"/>
            <path id="Tracé_419" data-name="Tracé 419" d="M179.421,185.4a.619.619,0,0,0-.541.6,1.021,1.021,0,0,0,.378.775,1.36,1.36,0,0,0,1.8.008,1.076,1.076,0,0,0-.249-1.67c-.6-.268-1.405.413-1.166,1.03" transform="translate(-75.85 -89.296)" fill="#fdf8ff" stroke="#fdf8ff" stroke-miterlimit="10" stroke-width="1"/>
            <path id="Tracé_420" data-name="Tracé 420" d="M180.174,178.148c-.5-.339-1.2.022-1.543.521a3,3,0,0,0,1.154,4.015,3.839,3.839,0,0,0,3.378.275,2.123,2.123,0,0,0,1.475-1.894,2.412,2.412,0,0,0-.243-.839,4.512,4.512,0,0,0-2.249-2.425,2.475,2.475,0,0,0-3.005.808" transform="translate(-76.038 -91.496)" fill="#fdf8ff" stroke="#fdf8ff" stroke-miterlimit="10" stroke-width="1"/>
            <path id="Tracé_421" data-name="Tracé 421" d="M174.149,223.8a2.647,2.647,0,0,0-3.834-1.189,2.537,2.537,0,0,0,.019,3.957,2.435,2.435,0,0,0,3.6-1.5,1.953,1.953,0,0,0-1.67-2.267" transform="translate(-78.655 -78.33)" fill="#fdf8ff" stroke="#fdf8ff" stroke-miterlimit="10" stroke-width="1"/>
            <path id="Tracé_422" data-name="Tracé 422" d="M186.452,216.829c.286-2.039-2.14-3.321-4.163-3.7-1.583-.3-3.451-.355-4.545.826a4,4,0,0,0-.909,2.445,8.032,8.032,0,0,0,2.848,6.689,3.639,3.639,0,0,0-3.418,1.409A6.552,6.552,0,0,0,175,228.111c-.187,2.331.655,5.042,2.831,5.9,2.508.987,5.14-.943,7.145-2.743a7.219,7.219,0,0,0,1.254,5.217,4.032,4.032,0,0,0,4.905,1.225,4.855,4.855,0,0,0,1.9-2.35,10.114,10.114,0,0,0-1.7-10.608,5.479,5.479,0,0,0,5.614,1.576,4.465,4.465,0,0,0,2.977-4.809c-.488-2.631-3.381-4.021-5.983-4.64,1.987-2.483,1.531-6.895-1.411-8.1-2.632-1.083-5.719.921-6.83,3.543s-.777,5.6-.378,8.421" transform="translate(-77.002 -82.381)" fill="#fdf8ff" stroke="#fdf8ff" stroke-miterlimit="10" stroke-width="1"/>
            <path id="Tracé_423" data-name="Tracé 423" d="M190.434,203.339q-.152.3-.3.591" transform="translate(-72.526 -83.898)" fill="#fdf8ff" stroke="#fdf8ff" stroke-miterlimit="10" stroke-width="1"/>
            <path id="Tracé_424" data-name="Tracé 424" d="M137.233,204.751v-.245" transform="translate(-88.146 -83.553)" fill="#fdf8ff" stroke="#fdf8ff" stroke-miterlimit="10" stroke-width="1"/>
            <path id="Tracé_425" data-name="Tracé 425" d="M137.383,204.478a.454.454,0,0,0-.519.333.679.679,0,0,0,.194.626,1.015,1.015,0,0,0,1.588-.394,1.2,1.2,0,0,0-.876-1.488,1.472,1.472,0,0,0-1.588.855,1.1,1.1,0,0,0-.012.958,1.439,1.439,0,0,0,1.423.534,1.571,1.571,0,0,0,1.157-.481,1.874,1.874,0,0,0,.066-1.641" transform="translate(-88.491 -83.842)" fill="#fdf8ff" stroke="#fdf8ff" stroke-miterlimit="10" stroke-width="1"/>
            <path id="Tracé_426" data-name="Tracé 426" d="M143.556,191.544l-.108-.107" transform="translate(-86.311 -87.412)" fill="#fdf8ff" stroke="#fdf8ff" stroke-miterlimit="10" stroke-width="1"/>
            <g id="Groupe_927" data-name="Groupe 927" transform="translate(81.741 18.758)">
              <path id="Tracé_427" data-name="Tracé 427" d="M174.5,137.888v15.235c0,1.579-.851,2.859-1.9,2.859h-3.609c-1.049,0-1.9-1.28-1.9-2.859V137.888Z" transform="translate(-161.071 -121.981)" fill="#79bcff"/>
              <path id="Tracé_428" data-name="Tracé 428" d="M180.329,136.544v10.33a2.08,2.08,0,0,1-2.08,2.08H165.506a2.08,2.08,0,0,1-2.08-2.08v-10.33Z" transform="translate(-162.153 -122.378)" fill="#79bcff"/>
              <path id="Tracé_429" data-name="Tracé 429" d="M176.2,148.954h-5.833a2.08,2.08,0,0,0,2.08-2.08v-10.33h5.833v10.33A2.08,2.08,0,0,1,176.2,148.954Z" transform="translate(-160.103 -122.378)" fill="#79bcff" opacity="0.5" style="mix-blend-mode: multiply;isolation: isolate"/>
              <path id="Tracé_430" data-name="Tracé 430" d="M182.02,125.633l-.136,18.812a2.056,2.056,0,0,1-2.056,2.056h-15.32a2.056,2.056,0,0,1-2.056-2.056l-.009-18.334Z" transform="translate(-162.443 -125.599)" fill="#79bcff"/>
              <path id="Tracé_431" data-name="Tracé 431" d="M174.258,125.607l4.408.034-.136,19.4a1.467,1.467,0,0,1-1.468,1.468H173.8a1.461,1.461,0,0,0,.394-.995Z" transform="translate(-159.089 -125.607)" fill="#79bcff" opacity="0.5" style="mix-blend-mode: multiply;isolation: isolate"/>
              <g id="Groupe_926" data-name="Groupe 926" transform="translate(0.72 11.132)">
                <rect id="Rectangle_24" data-name="Rectangle 24" width="1.182" height="8.512" fill="#79bcff" opacity="0.5" style="mix-blend-mode: multiply;isolation: isolate"/>
                <rect id="Rectangle_25" data-name="Rectangle 25" width="1.182" height="8.512" transform="translate(2.404)" fill="#79bcff" opacity="0.5" style="mix-blend-mode: multiply;isolation: isolate"/>
                <rect id="Rectangle_26" data-name="Rectangle 26" width="1.182" height="8.512" transform="translate(4.808)" fill="#79bcff" opacity="0.5" style="mix-blend-mode: multiply;isolation: isolate"/>
                <rect id="Rectangle_27" data-name="Rectangle 27" width="1.182" height="8.512" transform="translate(7.212)" fill="#79bcff" opacity="0.5" style="mix-blend-mode: multiply;isolation: isolate"/>
                <rect id="Rectangle_28" data-name="Rectangle 28" width="1.182" height="8.512" transform="translate(9.616)" fill="#79bcff" opacity="0.5" style="mix-blend-mode: multiply;isolation: isolate"/>
                <rect id="Rectangle_29" data-name="Rectangle 29" width="1.182" height="8.512" transform="translate(12.019)" fill="#79bcff" opacity="0.5" style="mix-blend-mode: multiply;isolation: isolate"/>
                <rect id="Rectangle_30" data-name="Rectangle 30" width="1.182" height="8.512" transform="translate(14.423)" fill="#79bcff" opacity="0.5" style="mix-blend-mode: multiply;isolation: isolate"/>
                <rect id="Rectangle_31" data-name="Rectangle 31" width="1.182" height="8.512" transform="translate(16.827)" fill="#79bcff" opacity="0.5" style="mix-blend-mode: multiply;isolation: isolate"/>
              </g>
            </g>
            <rect id="Rectangle_32" data-name="Rectangle 32" width="80.479" height="77.012" rx="10.245" transform="translate(51.29 -47.877)" fill="#79bcff"/>
            <rect id="Rectangle_33" data-name="Rectangle 33" width="57.813" height="55.322" rx="10.245" transform="translate(62.622 -44.064)" fill="#fcffff" opacity="0.3"/>
            <path id="Tracé_432" data-name="Tracé 432" d="M170.472,154.555s-11.273,19.945,0,19.945S170.472,154.555,170.472,154.555Z" transform="translate(-79.811 -98.302)" fill="#79bcff"/>
            <path id="Tracé_433" data-name="Tracé 433" d="M176.739,168.081s-9.08,16.064,0,16.064S176.739,168.081,176.739,168.081Z" transform="translate(-77.673 -94.308)" fill="#79bcff"/>
          </g>
        </g>
        <circle id="Ellipse_18" data-name="Ellipse 18" cx="25.496" cy="25.496" r="25.496" transform="translate(8.085 49.627) rotate(-76.717)" fill="#f55656"/>
      </g>
      <text id="_1" data-name="1" transform="translate(124.629 126.167)" fill="#fff" font-size="31" font-family="Europa-Bold" font-weight="700"><tspan x="0" y="24">1</tspan></text>
    </g>
    <g id="Groupe_938" data-name="Groupe 938" transform="translate(870.242 3025.596)">
      <g id="Groupe_937" data-name="Groupe 937" transform="translate(296.355 112)">
        <g id="Groupe_936" data-name="Groupe 936" clip-path="url(#clip-path-2)">
          <circle id="Ellipse_19" data-name="Ellipse 19" cx="93.384" cy="93.384" r="93.384" fill="#e4f1fb" opacity="0.34"/>
          <g id="Groupe_933" data-name="Groupe 933" transform="translate(-4.805 31.301)">
            <g id="Groupe_932" data-name="Groupe 932">
              <path id="Tracé_434" data-name="Tracé 434" d="M404.4,207.511c14.39-12.476,22.068-19.65,22.068-19.65s2.663-6.508-4.21-4.491c-9.769,2.868-25.252,17.2-27.137,17.332-3.856.275,34.527-30.308,35.787-35.393,1-4.027-2.342-8.476-11.924-1.279-8.85,6.649-27.1,24.4-27.53,22.824-.588-2.178,22.145-28.5,29.636-37.813,3.009-3.741-3.712-12.129-11.314-3.5-7.829,8.886-28.729,34.082-30.345,33.761-1.09-.217,2.991-10.934,8.431-18.795,13.329-19.26,13.614-22.506,9.417-25.413-7.255-5.027-40.172,58.291-44.326,46.4-.481-1.373,2.508-6.191,5.2-9.968,6.52-9.132,7.085-19.761,2.17-22.445s-3.4,3.165-11.059,12.225c-6.556,7.752-12.854,23.421-14.518,30.283-1.783,7.357.924,17.242-.48,23.3-3.342,14.409-42.429,39.6-42.429,39.6l34.568,29.992s28.825-39.58,36.235-46.47S387.708,221.985,404.4,207.511Z" transform="translate(-291.844 -134.81)" fill="#e19e68"/>
              <path id="Tracé_435" data-name="Tracé 435" d="M353.718,212.193s-9.676-.333-20.883-7.917C332.835,204.276,342.807,215.853,353.718,212.193Z" transform="translate(-278.665 -112.476)" fill="#e6b183" opacity="0.4" style="mix-blend-mode: multiply;isolation: isolate"/>
              <path id="Tracé_436" data-name="Tracé 436" d="M346.005,174.509s.311,18.6-10.708,34.212C335.3,208.721,352.343,191.152,346.005,174.509Z" transform="translate(-277.873 -122.046)" fill="#e6b183" opacity="0.4" style="mix-blend-mode: multiply;isolation: isolate"/>
              <path id="Tracé_437" data-name="Tracé 437" d="M352.345,172.749s13.065,17.431,19.712,20.387C372.057,193.136,358.835,188.65,352.345,172.749Z" transform="translate(-272.392 -122.612)" fill="#e6b183" opacity="0.4" style="mix-blend-mode: multiply;isolation: isolate"/>
            </g>
          </g>
          <path id="Tracé_438" data-name="Tracé 438" d="M369.754,162.811a5.894,5.894,0,0,0-11.008,3.329c.2,2.677,2.187,4.905,4.426,6.386a15.821,15.821,0,0,0-10.759-1.2,14.146,14.146,0,0,0-8.655,6.4,8.514,8.514,0,0,0,5.33,13.309,21.963,21.963,0,0,0,8.68.305,17.561,17.561,0,0,0-4.857,10.255,11.063,11.063,0,0,0,1.1,6.668,10.576,10.576,0,0,0,5.313,4.35,15.634,15.634,0,0,0,18.209-5.442A29.187,29.187,0,0,0,381,199.1a21.341,21.341,0,0,0,2.445,5.862,7.526,7.526,0,0,0,5.113,3.474,9.536,9.536,0,0,0,4.143-.646,11.909,11.909,0,0,0,4.672-2.578c1.881-1.854,2.613-4.558,3.1-7.152a13.476,13.476,0,0,0-.074-7.028,10.666,10.666,0,0,0-3.6-4.6,18.121,18.121,0,0,0-8.879-3.706c2.927.215,5.689-1.779,7.115-4.345a17.337,17.337,0,0,0,1.726-8.534,12.046,12.046,0,0,0-1.434-6.5c-2.025-3.17-6.47-4.156-10.049-3s-6.362,4.033-8.419,7.182a6.57,6.57,0,0,0-.328-6.1,10.016,10.016,0,0,0-4.771-4.047c-3.618-1.579-8.123-1.4-11.236,1.028s-4.319,7.246-2.19,10.571c2.048,3.2,6.185,4.195,9.911,4.924" transform="translate(-280.445 -96.58)" fill="#fdf8ff" stroke="#fdf8ff" stroke-miterlimit="10" stroke-width="1"/>
          <path id="Tracé_439" data-name="Tracé 439" d="M335.579,177.646a5.037,5.037,0,0,0-2.869-.263,6.278,6.278,0,0,0-1.976.609,4.954,4.954,0,0,0-2.43,3.145,5.615,5.615,0,0,0,.513,3.967,5.968,5.968,0,1,0,9.948-6.507,4.974,4.974,0,0,0-1.784-1.443,5.246,5.246,0,0,0-5.142.7,9.051,9.051,0,0,0-3.038,4.413" transform="translate(-284.977 -90.022)" fill="#fdf8ff" stroke="#fdf8ff" stroke-miterlimit="10" stroke-width="1"/>
          <path id="Tracé_440" data-name="Tracé 440" d="M391.463,170.459a.632.632,0,0,0-.765.312,1.043,1.043,0,0,0,0,.879,1.388,1.388,0,0,0,1.649.81,1.1,1.1,0,0,0,.515-1.644.907.907,0,0,0-1.529.426" transform="translate(-264.896 -92.061)" fill="#fdf8ff" stroke="#fdf8ff" stroke-miterlimit="10" stroke-width="1"/>
          <path id="Tracé_441" data-name="Tracé 441" d="M397.68,163.509a1.226,1.226,0,0,0-1.648-.209,3.061,3.061,0,0,0-.727,4.2,3.921,3.921,0,0,0,2.98,1.756,2.167,2.167,0,0,0,2.2-1.082,2.474,2.474,0,0,0,.151-.879,4.6,4.6,0,0,0-.986-3.228,2.527,2.527,0,0,0-3.12-.595" transform="translate(-263.549 -94.419)" fill="#fdf8ff" stroke="#fdf8ff" stroke-miterlimit="10" stroke-width="1"/>
          <path id="Tracé_442" data-name="Tracé 442" d="M370.239,202.714a2.7,2.7,0,0,0-2.991-2.8,2.589,2.589,0,0,0-1.744,3.642,2.483,2.483,0,0,0,3.972.222,1.992,1.992,0,0,0-.522-2.824" transform="translate(-273.054 -82.588)" fill="#fdf8ff" stroke="#fdf8ff" stroke-miterlimit="10" stroke-width="1"/>
          <path id="Tracé_443" data-name="Tracé 443" d="M346.771,202.2c1.17-1.744-.486-4-2.174-5.253-1.32-.979-3.01-1.862-4.542-1.265a4.08,4.08,0,0,0-1.921,1.842,8.191,8.191,0,0,0-.362,7.408,3.712,3.712,0,0,0-3.765-.229,6.693,6.693,0,0,0-2.77,2.757c-1.208,2.058-1.641,4.921-.025,6.676,1.863,2.022,5.138,1.421,7.78.659a7.365,7.365,0,0,0-1.17,5.348,4.113,4.113,0,0,0,3.958,3.308,4.951,4.951,0,0,0,2.791-1.311,10.322,10.322,0,0,0,3.156-10.5,5.59,5.59,0,0,0,4.454,3.945,4.557,4.557,0,0,0,4.872-3.092c.722-2.631-1.316-5.195-3.429-6.921,2.93-1.4,4.475-5.65,2.313-8.068-1.936-2.165-5.663-1.7-7.848.213s-3.206,4.8-4.094,7.564" transform="translate(-284.33 -84.001)" fill="#fdf8ff" stroke="#fdf8ff" stroke-miterlimit="10" stroke-width="1"/>
          <path id="Tracé_444" data-name="Tracé 444" d="M393.486,191.489l-.537.408" transform="translate(-264.141 -85.286)" fill="#fdf8ff" stroke="#fdf8ff" stroke-miterlimit="10" stroke-width="1"/>
          <path id="Tracé_445" data-name="Tracé 445" d="M344.951,169.591l.11-.226" transform="translate(-279.574 -92.4)" fill="#fdf8ff" stroke="#fdf8ff" stroke-miterlimit="10" stroke-width="1"/>
          <path id="Tracé_446" data-name="Tracé 446" d="M345.373,169.311a.463.463,0,0,0-.625.075.693.693,0,0,0-.1.661,1.036,1.036,0,0,0,1.633.345,1.225,1.225,0,0,0-.141-1.756,1.5,1.5,0,0,0-1.838.079,1.118,1.118,0,0,0-.437.875c.025.547.56.921,1.07,1.123a1.607,1.607,0,0,0,1.275.073,1.908,1.908,0,0,0,.79-1.477" transform="translate(-279.923 -92.724)" fill="#fdf8ff" stroke="#fdf8ff" stroke-miterlimit="10" stroke-width="1"/>
          <path id="Tracé_447" data-name="Tracé 447" d="M356.377,160.461l-.05-.145" transform="translate(-275.916 -95.309)" fill="#fdf8ff" stroke="#fdf8ff" stroke-miterlimit="10" stroke-width="1"/>
          <rect id="Rectangle_34" data-name="Rectangle 34" width="58.985" height="56.444" rx="10.245" transform="translate(63.892 -44.958)" fill="#fcffff" opacity="0.3"/>
          <g id="Groupe_935" data-name="Groupe 935" transform="translate(58.415 42.845)">
            <g id="Groupe_934" data-name="Groupe 934">
              <path id="Tracé_448" data-name="Tracé 448" d="M411.462,175.206c-10.254-15.618-16.228-24.019-16.228-24.019s-5.98-3.439-4.915,3.509c1.514,9.872,13.427,26.794,13.313,28.645-.237,3.786-24.966-37.523-29.746-39.41-3.785-1.493-8.546,1.171-2.8,11.426,5.31,9.473,20.189,29.537,18.6,29.745-2.194.288-24.821-25.248-32.9-33.746-3.244-3.414-12.276,2.026-4.878,10.543,7.62,8.771,29.392,32.377,28.869,33.906-.353,1.032-10.242-4.333-17.174-10.648-16.988-15.472-20.107-16.173-23.481-12.471-5.835,6.4,48.377,45.234,38.028,50.3-2.658,1.3-9.277-.617-12.6-3.732-8.03-7.53-18.29-9.465-21.541-5.038s2.635,3.717,10.445,12.347c6.683,7.386,24.29,13.038,30.744,15.55,6.921,2.693,18.579.085,24.283,2.239,13.573,5.128,59.565,59.129,59.565,59.129L500.4,267.7s-59-39.812-64.733-47.914S423.358,193.326,411.462,175.206Z" transform="translate(-339.683 -143.546)" fill="#e6b183"/>
            </g>
            <path id="Tracé_449" data-name="Tracé 449" d="M342.137,200.292s1.254-3.365,3.322-3.258,6.588,2.582,6.663,4.329-2.375,4.191-2.375,4.191a25.308,25.308,0,0,0-3.839-2.771A31.2,31.2,0,0,1,342.137,200.292Z" transform="translate(-338.893 -126.349)" fill="#f9c5a2"/>
            <path id="Tracé_450" data-name="Tracé 450" d="M342.99,164.877a3,3,0,0,0-2.471,2.334c-.27,1.977,2.684,5.311,2.794,5.316s4.6-2.886,4.789-4.342S344.415,164.62,342.99,164.877Z" transform="translate(-339.419 -136.695)" fill="#f9c5a2"/>
            <path id="Tracé_451" data-name="Tracé 451" d="M351.253,149.306s-2.824.718-3.125,2.938,3.013,5.964,3.137,5.971,5.517-2.87,5.13-4.472C356.071,152.4,352.852,149.016,351.253,149.306Z" transform="translate(-336.973 -141.7)" fill="#f9c5a2"/>
            <path id="Tracé_452" data-name="Tracé 452" d="M365.574,144.355s-2.639.377-3.132,2.367,2.157,5.723,2.269,5.741,5.3-2.068,5.106-3.565C369.655,147.643,367.058,144.249,365.574,144.355Z" transform="translate(-332.385 -143.287)" fill="#f9c5a2"/>
            <path id="Tracé_453" data-name="Tracé 453" d="M381.395,149.526s-1.914.058-2.422,1.439,1.081,4.254,1.16,4.275,3.947-1.053,3.928-2.136C384.043,152.2,382.461,149.568,381.395,149.526Z" transform="translate(-327.082 -141.624)" fill="#f9c5a2"/>
          </g>
          <path id="Tracé_454" data-name="Tracé 454" d="M600.349,222.968" transform="translate(-197.458 -75.165)" fill="#fdf8ff" stroke="#fdf8ff" stroke-miterlimit="10" stroke-width="1"/>
          <path id="Tracé_455" data-name="Tracé 455" d="M344.39,188.782h.558" transform="translate(-279.754 -86.157)" fill="#fdf8ff" stroke="#fdf8ff" stroke-miterlimit="10" stroke-width="1"/>
          <path id="Tracé_456" data-name="Tracé 456" d="M394.092,189.99a2.633,2.633,0,0,0,2.746.662,3.37,3.37,0,0,0,1.976-3.269,7.415,7.415,0,0,0-1.4-3.776c-.518-.8-1.242-1.641-2.2-1.631a2.521,2.521,0,0,0-1.616.8c-1.776,1.672-2.436,4.7-.888,6.585s5.33,1.278,5.683-1.135c.328-2.239-2.04-3.838-4.07-4.838" transform="translate(-264.495 -88.345)" fill="#fdf8ff" stroke="#fdf8ff" stroke-miterlimit="10" stroke-width="1"/>
          <path id="Tracé_457" data-name="Tracé 457" d="M403.683,175.288a31.594,31.594,0,0,0-4.069-2.022,5.9,5.9,0,0,0-4.434,0,3.319,3.319,0,0,0-1.9,3.719,3.582,3.582,0,0,0,3.211,2.262,10.41,10.41,0,0,0,4.073-.759,5.26,5.26,0,0,0-1.51,4.931,15,15,0,0,0,2.126,4.932c.638,1.086,1.7,2.338,2.89,1.927a2.141,2.141,0,0,0,.954-.766c1.551-2.022,1.168-4.87.711-7.377a10.178,10.178,0,0,0,2.823,4.087c1.347.994,3.466,1.156,4.566-.106,1.04-1.193.737-3.074-.056-4.444a7.979,7.979,0,0,0-6.1-3.889,6.8,6.8,0,0,0,.945-6.855,2.822,2.822,0,0,0-1.485-1.631,2.67,2.67,0,0,0-2.9,1.32c-.634.953-.917,2.1-1.48,3.094" transform="translate(-264.069 -92.455)" fill="#fdf8ff" stroke="#fdf8ff" stroke-miterlimit="10" stroke-width="1"/>
          <path id="Tracé_458" data-name="Tracé 458" d="M344.455,188.222c-.321-.116-.571.389-.386.677a1.255,1.255,0,0,0,.9.425.773.773,0,0,0-.017-1.37.722.722,0,1,0,.724.576c.147-.27-.379-.539-.514-.264" transform="translate(-279.878 -86.423)" fill="#fdf8ff" stroke="#fdf8ff" stroke-miterlimit="10" stroke-width="1"/>
          <path id="Tracé_459" data-name="Tracé 459" d="M358.323,148.9a.569.569,0,0,0-.2.724" transform="translate(-275.358 -98.981)" fill="#fdf8ff" stroke="#fdf8ff" stroke-miterlimit="10" stroke-width="1"/>
        </g>
      </g>
      <circle id="Ellipse_21" data-name="Ellipse 21" cx="26.012" cy="26.012" r="26.012" transform="translate(292.758 159.013) rotate(-76.603)" fill="#f55656"/>
    </g>
    <text id="Frotter_vos_mains_Face_à_face" data-name="Frotter vos mains 
Face à face" transform="translate(1257.05 3349.931)" font-size="19" font-family="Europa-Regular" letter-spacing="0.034em"><tspan x="-79.601" y="0">Frotter vos mains </tspan><tspan x="-50.046" y="18">Face à face</tspan></text>
    <text id="_1-2" data-name="1" transform="translate(828.582 3151.734)" fill="#fff" font-size="31" font-family="Europa-Bold" font-weight="700"><tspan x="0" y="24">1</tspan></text>
    <text id="_2" data-name="2" transform="translate(1183.632 3151.734)" fill="#fff" font-size="31" font-family="Europa-Bold" font-weight="700"><tspan x="0" y="24">2</tspan></text>
    <g id="Groupe_939" data-name="Groupe 939" transform="translate(1029.435 3029.359)">
      <circle id="Ellipse_22" data-name="Ellipse 22" cx="94.899" cy="94.899" r="94.899" transform="translate(495.766 113.349)" fill="#e4f1fb" opacity="0.35"/>
      <path id="Tracé_460" data-name="Tracé 460" d="M594.6,304.063s-.685-49.753,1.14-59.872,9.293-25.548,16.432-46.837c6.133-18.283,11.443-31.631,11.443-31.631s-1.8-6.915-6.16-1.084c-6.2,8.286-14.175,29.281-17.109,29.268s12.006-45.469,9.93-50.372c-1.644-3.881-6.76-5.951-10.166,5.742-3.145,10.8-10.816,36.781-12.122,35.76-1.8-1.413.638-36.671,1.053-48.811.166-4.876-10.411-7.6-11.332,4.049-.949,12-3.764,45.154-5.275,45.878-1.018.489-3.848-13.395-5.909-22.072-5.5-23.159-5.251-25.718-10.436-25.524-8.963.334,7.954,72.724-2.674,65.586-1.229-.825-1.735-6.563-1.844-11.278-.265-11.4-6.775-18.6-12.406-17.786s1.163,5.885.455,17.92c-.606,10.3,2.317,23.852,5.146,30.445,3.034,7.069,11.259,13.459,13.808,19.238,6.065,13.752-10.365,58.06-10.365,58.06" transform="translate(17.098 9.399)" fill="#e19e68"/>
      <path id="Tracé_461" data-name="Tracé 461" d="M587.281,211.518s-8.073,5.626-21.808,6.289C565.473,217.807,580.639,221.143,587.281,211.518Z" transform="translate(26.893 36.654)" fill="#e6b183" opacity="0.4" style="mix-blend-mode: multiply;isolation: isolate"/>
      <path id="Tracé_462" data-name="Tracé 462" d="M556.074,186.046s11.592,14.939,12.144,34.345C568.218,220.391,571.372,195.717,556.074,186.046Z" transform="translate(23.669 27.919)" fill="#e6b183" opacity="0.4" style="mix-blend-mode: multiply;isolation: isolate"/>
      <path id="Tracé_463" data-name="Tracé 463" d="M562.177,179.273s21.247,6.211,28.455,4.563C590.632,183.836,577.146,188.245,562.177,179.273Z" transform="translate(25.763 25.596)" fill="#e6b183" opacity="0.4" style="mix-blend-mode: multiply;isolation: isolate"/>
      <path id="Tracé_464" data-name="Tracé 464" d="M579.682,153.525a1.5,1.5,0,0,0-1.642-1.08,2.775,2.775,0,0,0-1.785,1.115,5.065,5.065,0,0,0-.353,5.683c.416.676,1.025,1.356.9,2.141a2.365,2.365,0,0,1-1.128,1.414c-1.338.945-2.885,1.786-3.592,3.265s.154,3.766,1.789,3.646a14.414,14.414,0,0,0-4.683,5.009,4.755,4.755,0,0,0-.661,3.986,3.669,3.669,0,0,0,2.182,1.946,5.349,5.349,0,0,0,6.638-3.139,14.5,14.5,0,0,0,.328,11.13c.6,1.319,1.589,2.667,3.026,2.858,1.923.255,3.419-1.664,4.1-3.48a14.974,14.974,0,0,0-.736-12c1.022,1.476,3.532,1.068,4.589-.385s1-3.433.637-5.191c-.521-2.519-2.392-5.392-4.914-4.887a3.084,3.084,0,0,0,2.831-2.2,7.122,7.122,0,0,0-.015-3.8A9.9,9.9,0,0,0,584.4,154.1a4.794,4.794,0,0,0-5.74-.642" transform="translate(27.866 16.392)" fill="#fdf8ff" stroke="#fdf8ff" stroke-miterlimit="10" stroke-width="1"/>
      <path id="Tracé_465" data-name="Tracé 465" d="M555.1,174.246c1.724.606,3.508-1.061,3.964-2.83a4.572,4.572,0,0,0-.426-3.539,3.1,3.1,0,0,0-3.118-1.461,2.358,2.358,0,0,0-1.833,2.717q1.819-1.877,3.641-3.752a11.018,11.018,0,0,0,2.205-2.836,6.569,6.569,0,0,0-1.3-7.022,9.688,9.688,0,0,0-6.794-2.878,6.5,6.5,0,0,0-3.48.685,3.328,3.328,0,0,0-1.774,2.914,2.267,2.267,0,0,0,2.358,2.159,8.9,8.9,0,0,0-6.555,2.483,6.177,6.177,0,0,0-1.347,6.652,4.762,4.762,0,0,0,6.011,2.443,5.288,5.288,0,0,0-3.027,6.38A5.65,5.65,0,0,0,549.786,180a6.067,6.067,0,0,0,4.816-5.412" transform="translate(18.215 16.46)" fill="#fdf8ff" stroke="#fdf8ff" stroke-miterlimit="10" stroke-width="1"/>
      <path id="Tracé_466" data-name="Tracé 466" d="M554.184,172.71a.683.683,0,0,0-.647.548,1.067,1.067,0,0,0,1.175,1.16,1.746,1.746,0,0,0,1.359-1.219,1.706,1.706,0,0,0-.44-1.93c-.573-.416-1.591-.059-1.594.649" transform="translate(22.793 22.79)" fill="#fdf8ff" stroke="#fdf8ff" stroke-miterlimit="10" stroke-width="1"/>
      <path id="Tracé_467" data-name="Tracé 467" d="M541.618,176.635a1.143,1.143,0,0,0-.313,1.057,1.028,1.028,0,0,0,1.244-.355.792.792,0,0,0-.414-1.14c-.454-.115-.943.438-.719.85" transform="translate(18.595 24.535)" fill="#fdf8ff" stroke="#fdf8ff" stroke-miterlimit="10" stroke-width="1"/>
      <path id="Tracé_468" data-name="Tracé 468" d="M586.614,168.967l-.461-.047" transform="translate(33.985 22.045)" fill="#fdf8ff" stroke="#fdf8ff" stroke-miterlimit="10" stroke-width="1"/>
      <path id="Tracé_469" data-name="Tracé 469" d="M570.181,157.263a1.3,1.3,0,0,1,1.146.306" transform="translate(28.508 18.037)" fill="#fdf8ff" stroke="#fdf8ff" stroke-miterlimit="10" stroke-width="1"/>
      <path id="Tracé_470" data-name="Tracé 470" d="M552.3,149.124l.506-.415" transform="translate(22.376 15.114)" fill="#fdf8ff" stroke="#fdf8ff" stroke-miterlimit="10" stroke-width="1"/>
      <path id="Tracé_471" data-name="Tracé 471" d="M600.255,342.546s-14.144-70.983-12.463-80.929,10.149-27.877,14.58-49.456c3.819-18.6,5.541-28.934,5.541-28.934s-1.864-6.764-6.1-1c-6.025,8.195-9.579,28.923-11,30.174-2.9,2.557,8.939-44.925,6.828-49.711-1.673-3.791-7.056-5.287-10.28,6.219-2.979,10.628-6.646,35.746-7.95,34.757-1.8-1.366.185-35.981.447-47.9.1-4.785-10.385-7.346-11.155,4.093-.792,11.78-2.008,44.393-3.492,45.119-1,.49-4.315-10.466-4.8-19.986-1.179-23.326-2.94-26.065-8.063-25.821-8.858.422,3.8,65-3.093,62.374-2.278-.868-3.779-9.132-3.944-13.757-.4-11.18-4.622-15.945-10.181-15.088s-.767,4.566-1.32,16.381c-.474,10.111,2.146,22.375,5.024,28.813,3.085,6.9,9.606,16.988,12.2,22.63,6.164,13.428.615,85.3.615,85.3" transform="translate(15.555 16.146)" fill="#e6b183"/>
      <path id="Tracé_472" data-name="Tracé 472" d="M532.091,183.579s3.34-1.523,4.766.039,2.924,6.583,1.718,7.9-4.751,1.315-4.751,1.315a25.546,25.546,0,0,0-.79-4.75A31.772,31.772,0,0,1,532.091,183.579Z" transform="translate(15.444 26.844)" fill="#f9c5a2"/>
      <path id="Tracé_473" data-name="Tracé 473" d="M550.819,158.588a3.1,3.1,0,0,0-3.481-.093c-1.622,1.232-1.883,5.749-1.806,5.832s5.428,1.223,6.614.309S552.04,159.423,550.819,158.588Z" transform="translate(20.05 18.29)" fill="#f9c5a2"/>
      <path id="Tracé_474" data-name="Tracé 474" d="M567.961,153.3s-2.57-1.508-4.392-.126-2.114,6.456-2.029,6.548,6.081,1.892,6.957.461C569.231,158.981,569.332,154.237,567.961,153.3Z" transform="translate(25.54 16.445)" fill="#f9c5a2"/>
      <path id="Tracé_475" data-name="Tracé 475" d="M581.721,159.946s-2.19-1.622-3.984-.543-2.564,5.667-2.5,5.76,5.348,2.314,6.285,1.1C582.314,165.24,582.876,160.933,581.721,159.946Z" transform="translate(30.242 18.654)" fill="#f9c5a2"/>
      <path id="Tracé_476" data-name="Tracé 476" d="M589.11,174.881s-1.432-1.33-2.8-.7-2.284,3.838-2.243,3.911,3.629,2.072,4.4,1.279C589.108,178.7,589.855,175.677,589.11,174.881Z" transform="translate(33.27 23.791)" fill="#f9c5a2"/>
      <path id="Tracé_477" data-name="Tracé 477" d="M548.381,191.588a1.6,1.6,0,0,0-1.26-1.8,3.035,3.035,0,0,0-2.306.568,3.076,3.076,0,0,0-1.273,1.476,2.077,2.077,0,0,0,3.38,2.2,11.372,11.372,0,0,0-2.574,4.467c-.372,1.693.254,3.742,1.848,4.426,1.9.818,4.088-.689,5.062-2.519a1.017,1.017,0,0,1,.4-.487c.5-.227.9.436,1.105.941a4.037,4.037,0,0,0,4.044,2.678,3.467,3.467,0,0,0,2.717-3.423,4.653,4.653,0,0,0-2.419-3.852,7.186,7.186,0,0,0-4.617-.717,5.389,5.389,0,0,0,2.057-4.062,3.8,3.8,0,0,0-2.522-3.6,4.149,4.149,0,0,0-3.551.78,9,9,0,0,0-2.36,2.9" transform="translate(19.335 28.505)" fill="#fdf8ff" stroke="#fdf8ff" stroke-miterlimit="10" stroke-width="1"/>
      <path id="Tracé_478" data-name="Tracé 478" d="M593.582,197.112a9.138,9.138,0,0,1,3.144-7.23,3.621,3.621,0,0,1,2.992-1.053c1.9.422,2.373,2.945,2.041,4.863a14.278,14.278,0,0,1-2.89,6.429c2.83-.9,5.8,1.582,6.657,4.428a9.227,9.227,0,0,1-6.423,11.164,3.459,3.459,0,0,1-2.506-.158,1.6,1.6,0,0,1-.662-2.182,14.627,14.627,0,0,1-2.783,18.515,8.825,8.825,0,0,1-13.439-1.039c-2.5-2.971-3.705-7.358-1.949-10.824a4.723,4.723,0,0,1,2.693-2.5,2.724,2.724,0,0,1,3.224,1.264,12.389,12.389,0,0,1-12.369-5.96,8.927,8.927,0,0,1-1.09-6.574,5.877,5.877,0,0,1,4.7-4.394,4.415,4.415,0,0,1,4.87,3.7c-1.279-1.813-2.388-3.917-2.221-6.129s2.076-4.4,4.279-4.132a4.347,4.347,0,0,1,3.2,2.636,12.805,12.805,0,0,1,.876,4.221,7.859,7.859,0,0,1-.908-4.146,3.7,3.7,0,0,1,2.464-3.211,3.6,3.6,0,0,1,3.982,2.165,6.412,6.412,0,0,1-.114,4.808" transform="translate(28.441 28.854)" fill="#fdf8ff" stroke="#fdf8ff" stroke-miterlimit="10" stroke-width="1"/>
      <path id="Tracé_479" data-name="Tracé 479" d="M543.221,221.416a4.8,4.8,0,0,0-5.741-3.046,2.7,2.7,0,0,0-2.057,2.142c-.126,1.7,1.918,2.621,3.574,3.038a5.124,5.124,0,0,0-5.4,3.958c-.36,1.826.659,4.025,2.493,4.349,1.711.3,3.239-1.021,4.472-2.245a7.007,7.007,0,0,0,.548,7.283,3.371,3.371,0,0,0,2.648,1.569,3.131,3.131,0,0,0,2.1-1.107,5.439,5.439,0,0,0,.526-6.5,7.522,7.522,0,0,0,4.221,4.336,2.263,2.263,0,0,0,1.832.1,2.169,2.169,0,0,0,.9-1.078,7.1,7.1,0,0,0-1.313-7.408,10.661,10.661,0,0,0-7.012-3.34,5.59,5.59,0,0,0,3.152-6.066,3.726,3.726,0,0,0-2.258-2.859,2.311,2.311,0,0,0-2.979,1.552,11.413,11.413,0,0,0-2.466-6.069c-.835-1.035-2.059-1.986-3.368-1.755-1.613.283-2.405,2.192-2.373,3.829a7.824,7.824,0,0,0,4.1,6.634" transform="translate(15.935 35.528)" fill="#fdf8ff" stroke="#fdf8ff" stroke-miterlimit="10" stroke-width="1"/>
      <path id="Tracé_480" data-name="Tracé 480" d="M590.175,154.966c-.42-.22-1.058-.488-1.256-.055a.512.512,0,0,0-.034.262.736.736,0,1,0,.268-.653.792.792,0,0,0,.443,1.328.821.821,0,0,0,.623-1.283.911.911,0,0,0-1.5.512,1.1,1.1,0,0,0,1.309,1.1,1.389,1.389,0,0,0,.987-1.528,1.677,1.677,0,0,0-1.6-1.386,1.815,1.815,0,0,0-1.7,1.308,1.842,1.842,0,0,0,3.505,1.123,1.508,1.508,0,0,0,.073-.822,1.559,1.559,0,0,0-.818-1.014,1.871,1.871,0,0,0-2.162.313,1.654,1.654,0,0,0-.109,2.135,1.483,1.483,0,0,0,2.083.134" transform="translate(34.501 16.676)" fill="#fdf8ff" stroke="#fdf8ff" stroke-miterlimit="10" stroke-width="1"/>
      <path id="Tracé_481" data-name="Tracé 481" d="M549.028,229.631a.829.829,0,1,0,.078-.031" transform="translate(21.099 42.843)" fill="#fdf8ff" stroke="#fdf8ff" stroke-miterlimit="10" stroke-width="1"/>
      <circle id="Ellipse_23" data-name="Ellipse 23" cx="94.899" cy="94.899" r="94.899" transform="translate(495.766 113.349)" fill="none"/>
      <path id="Tracé_483" data-name="Tracé 483" d="M26.434,0A26.434,26.434,0,1,1,0,26.434,26.434,26.434,0,0,1,26.434,0Z" transform="translate(487.058 135.497) rotate(-35.706)" fill="#f55656"/>
    </g>
    <path id="Tracé_482" data-name="Tracé 482" d="M1648.479,3219.1s33.594,15.465,69.316,1.212,22.888,33.411,22.888,33.411L1732,3310.862h-71.874l-40.873-55.4Z" transform="translate(-65 106)" fill="#fff"/>
    <text id="_3" data-name="3" transform="translate(1543.632 3156.734)" fill="#fff" font-size="31" font-family="Europa-Bold" font-weight="700"><tspan x="0" y="24">3</tspan></text>
    <text id="Laver_entre_vos_doigts_" data-name="Laver entre vos doigts " transform="translate(1614 3358.931)" font-size="19" font-family="Europa-Regular" letter-spacing="0.034em"><tspan x="-101.099" y="0">Laver entre vos doigts </tspan></text>
    <g id="Groupe_940" data-name="Groupe 940" transform="translate(706.452 3199.207)">
      <path id="Tracé_484" data-name="Tracé 484" d="M188.548,301.793a89.213,89.213,0,1,1-89.212,89.214,89.213,89.213,0,0,1,89.212-89.214" fill="#e4f1fb" opacity="0.35"/>
      <path id="Tracé_485" data-name="Tracé 485" d="M165.092,386.993c-.109.346,4.56,1.924,4.56,1.924s6.7-3.848,7.7-5.273-7.268-3.776-7.268-3.776S165.806,384.713,165.092,386.993Z" transform="translate(17.26 20.494)" fill="#e19e68"/>
      <path id="Tracé_486" data-name="Tracé 486" d="M137.233,395.414v-.24" transform="translate(9.947 24.511)" fill="#fdf8ff" stroke="#fdf8ff" stroke-miterlimit="10" stroke-width="1"/>
      <path id="Tracé_487" data-name="Tracé 487" d="M175.771,364.459s1.7,1.506,1.533,1.977c-.268.766-.5,6.663-1.069,10.707-.655,4.651-5.309-1.5-5.309-1.5s-1.709-1.995-1.424-2.351S175.771,364.459,175.771,364.459Z" transform="translate(18.409 16.449)" fill="#cc8250"/>
      <path id="Tracé_488" data-name="Tracé 488" d="M230.428,498.18s-13.3-66.73-11.717-76.08,9.541-26.205,13.707-46.492c3.592-17.485,5.209-27.2,5.209-27.2s-1.752-6.36-5.738-.939c-5.664,7.7-9.005,27.189-10.34,28.364-2.729,2.4,8.4-42.231,6.417-46.732-1.573-3.564-6.633-4.97-9.664,5.847-2.8,9.991-6.248,33.6-7.473,32.676-1.694-1.285.173-33.826.419-45.027.1-4.5-9.762-6.906-10.486,3.847-.745,11.075-1.886,41.734-3.281,42.416-.942.461-3.363-9.9-4.51-18.787-2.857-22.133-6.056-25.159-10.873-24.93-3.074.146-1.632,7.9-.571,18.384,1.815,17.917,5.041,42.464.956,40.907-2.142-.816-15.335-3.924-15.492-8.272-.376-10.51-4.345-14.988-9.57-14.183s-.722,4.291-1.242,15.4c-.444,9.505,13.8,16.373,16.506,22.426,2.9,6.49,9.031,15.97,11.466,21.274,5.794,12.624.577,80.186.577,80.186" transform="translate(14.577 4.461)" fill="#e6b183"/>
      <path id="Tracé_489" data-name="Tracé 489" d="M179.5,325.323a2.913,2.913,0,0,0-3.192.728c-1.189,1.5-.371,5.675-.283,5.733s5.229-.154,6.1-1.265S180.809,325.8,179.5,325.323Z" transform="translate(20.037 6.124)" fill="#f9c5a2"/>
      <path id="Tracé_490" data-name="Tracé 490" d="M199.364,320.326s-2.416-1.418-4.13-.119-1.987,6.069-1.906,6.157,5.715,1.778,6.538.432C200.557,325.667,200.651,321.208,199.364,320.326Z" transform="translate(24.668 4.69)" fill="#f9c5a2"/>
      <path id="Tracé_491" data-name="Tracé 491" d="M213.119,326.961s-2.059-1.525-3.746-.51-2.409,5.328-2.344,5.416,5.026,2.174,5.908,1.03C213.677,331.937,214.2,327.888,213.119,326.961Z" transform="translate(28.267 6.381)" fill="#f9c5a2"/>
      <path id="Tracé_492" data-name="Tracé 492" d="M220.6,341.9s-1.347-1.251-2.632-.66-2.146,3.608-2.107,3.676,3.411,1.948,4.132,1.2C220.593,345.492,221.3,342.647,220.6,341.9Z" transform="translate(30.585 10.312)" fill="#f9c5a2"/>
      <path id="Tracé_493" data-name="Tracé 493" d="M174.264,373.969a28.085,28.085,0,0,0-3.921-3.222,2.389,2.389,0,0,0-2-.566,1.453,1.453,0,0,0-.89,1.524,4.123,4.123,0,0,0,.723,1.722c.917,1.5,2.246,3.211,4.1,3.053a7.075,7.075,0,0,0-3.847-.3,3.082,3.082,0,0,0-2.083,1.211,2.266,2.266,0,0,0,.529,2.7,6.1,6.1,0,0,0,2.747,1.374,4.736,4.736,0,0,0-4.5,1.228,3,3,0,0,0,.122,4.174,4.765,4.765,0,0,0,4.273.627c1.454-.378,2.784-1.1,4.236-1.481a9.025,9.025,0,0,0,1.15,5.222c.615,1.084,2.044,2.161,3.116,1.444a2.125,2.125,0,0,0,.74-1.107,8.184,8.184,0,0,0-2.918-9.134,4.178,4.178,0,0,0,5.4-2.089,5.868,5.868,0,0,0-1.116-5.794,3.044,3.044,0,0,0,1.049-3.194,5.717,5.717,0,0,0-2.05-2.9,3.5,3.5,0,0,0-3.116-.957,3.339,3.339,0,0,0-1.794,1.837,13.356,13.356,0,0,0-1.453,6.368" transform="translate(17.061 17.219)" fill="#fdf8ff" stroke="#fdf8ff" stroke-miterlimit="10" stroke-width="1"/>
      <path id="Tracé_494" data-name="Tracé 494" d="M134.471,401.074s-1.709-20.948-1-27.647,13.111-25.652,15.676-27.932,6.84-.428,7.981.713,3.989-2.423,6.555-.285,3.563,5.131,7.7,4.845,5.843.855,6.84,4.417,4.133,2.423,7.411,2.993,3.277,2.565,4.417,5.415,1.711,8.266.428,8.979-5.415,4.988-5.415,4.988-4.419,11.258-3.707,14.108l.784,6.556s-9.663,3.12-12.042,4.845a21.992,21.992,0,0,1-7.981,3.705s-5.129,41.755-1.14,59.428l-43.466-5.559Z" transform="translate(4.771 11.187)" fill="#e19e68"/>
      <path id="Tracé_495" data-name="Tracé 495" d="M171.019,372.479s3.135-8.337,3.633-8.693S172.658,369.628,171.019,372.479Z" transform="translate(18.816 16.268)" fill="#e6b183" opacity="0.4" style="mix-blend-mode: multiply;isolation: isolate"/>
      <path id="Tracé_496" data-name="Tracé 496" d="M170.877,372.359a26.662,26.662,0,0,0,1.355-6.574S171.127,370.524,170.877,372.359Z" transform="translate(18.779 16.797)" fill="#e6b183" opacity="0.4" style="mix-blend-mode: multiply;isolation: isolate"/>
      <path id="Tracé_497" data-name="Tracé 497" d="M155.164,393.865s-9.9,1.568-13.326.927C141.838,394.792,149.677,397.214,155.164,393.865Z" transform="translate(11.156 24.168)" fill="#e6b183" opacity="0.4" style="mix-blend-mode: multiply;isolation: isolate"/>
      <path id="Tracé_498" data-name="Tracé 498" d="M149.938,348.3a4.249,4.249,0,0,1,4.275,1.069" transform="translate(13.282 12.158)" fill="#e6b183" opacity="0.4" style="mix-blend-mode: multiply;isolation: isolate"/>
      <path id="Tracé_499" data-name="Tracé 499" d="M159.813,351.8a4.249,4.249,0,0,1,4.116,1.577" transform="translate(15.874 13.108)" fill="#e6b183" opacity="0.4" style="mix-blend-mode: multiply;isolation: isolate"/>
      <path id="Tracé_500" data-name="Tracé 500" d="M168.553,357.076a4.247,4.247,0,0,1,4.395.323" transform="translate(18.169 14.388)" fill="#e6b183" opacity="0.4" style="mix-blend-mode: multiply;isolation: isolate"/>
      <path id="Tracé_501" data-name="Tracé 501" d="M168.624,383.747s-2.28-5.95-2.6-9.157A19.094,19.094,0,0,1,168.624,383.747Z" transform="translate(17.505 19.108)" fill="#e6b183" opacity="0.4" style="mix-blend-mode: multiply;isolation: isolate"/>
      <path id="Tracé_502" data-name="Tracé 502" d="M192.971,374.693a4.124,4.124,0,0,0-1.855-.432,4.2,4.2,0,0,0-3.2,1.79,5.066,5.066,0,0,0-1.164,1.1,4.112,4.112,0,0,0-.677,3.229,4.658,4.658,0,0,0,1.82,2.779,4.956,4.956,0,1,0,5.076-8.465Z" transform="translate(22.745 19.022)" fill="#fdf8ff" stroke="#fdf8ff" stroke-miterlimit="10" stroke-width="1"/>
      <path id="Tracé_503" data-name="Tracé 503" d="M173.686,347.883a2.594,2.594,0,0,0-.8-2.264,1.417,1.417,0,0,0-.856-.855,2.923,2.923,0,0,0-3.522,2.043,3.747,3.747,0,0,0,.54,3.26,2.07,2.07,0,0,0,2.14.946,2.352,2.352,0,0,0,.736-.429A4.4,4.4,0,0,0,173.686,347.883Z" transform="translate(18.115 11.245)" fill="#fdf8ff" stroke="#fdf8ff" stroke-miterlimit="10" stroke-width="1"/>
      <path id="Tracé_504" data-name="Tracé 504" d="M176.493,352.865a1.382,1.382,0,0,0-1.27.12.745.745,0,0,0-.55.331,1.553,1.553,0,0,0,.6,2.079,1.989,1.989,0,0,0,1.75.143,1.1,1.1,0,0,0,.765-.981,1.27,1.27,0,0,0-.126-.436A2.344,2.344,0,0,0,176.493,352.865Z" transform="translate(19.722 13.379)" fill="#fdf8ff" stroke="#fdf8ff" stroke-miterlimit="10" stroke-width="1"/>
      <path id="Tracé_505" data-name="Tracé 505" d="M163.9,390.928a2.474,2.474,0,0,0,.018,3.858,2.374,2.374,0,0,0,3.508-1.464,2.03,2.03,0,0,0-.461-1.591l.672.356A2.583,2.583,0,0,0,163.9,390.928Z" transform="translate(16.706 23.291)" fill="#fdf8ff" stroke="#fdf8ff" stroke-miterlimit="10" stroke-width="1"/>
      <path id="Tracé_506" data-name="Tracé 506" d="M175.239,360.382a1.143,1.143,0,0,0-.617-.415,1.433,1.433,0,0,0-1.548.833,1.074,1.074,0,0,0-.011.934,1.407,1.407,0,0,0,1.389.52,1.536,1.536,0,0,0,1.126-.468,1.829,1.829,0,0,0,.064-1.6Z" transform="translate(19.325 15.263)" fill="#fdf8ff" stroke="#fdf8ff" stroke-miterlimit="10" stroke-width="1"/>
      <path id="Tracé_507" data-name="Tracé 507" d="M179.286,364.144a7.046,7.046,0,0,1,.327-5.141c.345-.728,1.045-1.488,1.821-1.268,1.107.316.842,1.971,1.369,2.993a4.531,4.531,0,1,1,7.522,3.686,1.958,1.958,0,0,1,2.519-1.087,3.012,3.012,0,0,1,1.752,2.357,6.882,6.882,0,0,1-.319,3.033,14.714,14.714,0,0,1-1.526,3.608,3.528,3.528,0,0,1-1.937,1.738,3.022,3.022,0,0,1-2.615-.783,5.452,5.452,0,0,1-1.856-4.91,3.318,3.318,0,0,1-1.125,4.582,3.75,3.75,0,0,1-4.712-1.146,4.319,4.319,0,0,1,.167-4.963,1.063,1.063,0,0,1,.949-.534c.543.1.648.864.444,1.376a2.626,2.626,0,0,1-3.294,1.38,2.841,2.841,0,0,1-1.613-3.251,3.1,3.1,0,0,1,2.935-2.228" transform="translate(20.407 14.359)" fill="#fdf8ff" stroke="#fdf8ff" stroke-miterlimit="10" stroke-width="1"/>
      <path id="Tracé_508" data-name="Tracé 508" d="M188.548,301.793a89.213,89.213,0,1,1-89.212,89.214,89.213,89.213,0,0,1,89.212-89.214" fill="none"/>
      <path id="Tracé_509" data-name="Tracé 509" d="M125.49,303.1a24.85,24.85,0,1,1-24.851,24.851A24.851,24.851,0,0,1,125.49,303.1" transform="translate(0.342 0.342)" fill="#f55656"/>
    </g>
    <path id="Tracé_510" data-name="Tracé 510" d="M892.686,3542.415s16.193,24.887,62.737,31.38,73.675-34.121,73.675-34.121l22.431,62.846-70.675,28.432-73.136-14.333-31.351-55.309Z" transform="translate(-65 106)" fill="#fff"/>
    <text id="_4" data-name="4" transform="translate(821.632 3512.734)" fill="#fff" font-size="31" font-family="Europa-Bold" font-weight="700"><tspan x="0" y="24">4</tspan></text>
    <text id="N_oublié_pas_votre_pouce" data-name="N’oublié pas votre pouce" transform="translate(895 3714.931)" font-size="19" font-family="Europa-Regular" letter-spacing="0.034em"><tspan x="-109.032" y="0">N’oublié pas votre pouce</tspan></text>
    <text id="Lavez_vos_main" data-name="Lavez vos main" transform="translate(1249 3714.931)" font-size="19" font-family="Europa-Regular" letter-spacing="0.034em"><tspan x="-66.111" y="0">Lavez vos main</tspan></text>
    <g id="Groupe_943" data-name="Groupe 943" transform="translate(870.519 3198.755)">
      <path id="Tracé_511" data-name="Tracé 511" d="M384.011,479.409A88.808,88.808,0,1,1,472.818,390.6a88.809,88.809,0,0,1-88.808,88.808" transform="translate(0.699 4.565)" fill="#e4f1fb" opacity="0.35"/>
      <g id="Groupe_942" data-name="Groupe 942" transform="translate(320.667 364.658)">
        <g id="Groupe_941" data-name="Groupe 941">
          <path id="Tracé_512" data-name="Tracé 512" d="M375.673,419.548c-17.053,6.1-26.579,9.12-26.579,9.12s-6.636-.828-1.757-5.584c6.934-6.758,26.031-12.9,27.023-14.4,2.027-3.068-41.224,14.475-46.025,13.146-3.8-1.053-5.932-5.894,4.5-10.478,9.637-4.234,32.863-11.081,31.756-12.168-1.529-1.5-33.946,5.058-45.16,6.921-4.5.748-8.32-8.733,2.377-11.008,11.017-2.343,41.646-7.908,42.135-9.4.328-1.005-10.457-2.623-19.509-1.782-22.179,2.062-25,.784-25.453-4.05-.782-8.357,67.047-6.1,59.129-15.09-.915-1.039-6.3-.809-10.69-.337-10.609,1.142-19.681-3.348-19.613-8.672s4.209-1.34,15.291-3.462c9.482-1.816,25.405.273,31.868,2.1,6.929,1.954,13.858,8.807,19.53,10.469,13.5,3.953,52.61-16.687,52.61-16.687l8.728,42.638s-46.247,5.424-55.413,8.35S395.456,412.465,375.673,419.548Z" transform="translate(-314.909 -348.182)" fill="#e19e68"/>
          <path id="Tracé_513" data-name="Tracé 513" d="M395,394.555s4.236-8.174,3.18-21C398.176,373.555,403.118,387.22,395,394.555Z" transform="translate(-294.346 -341.667)" fill="#e6b183" opacity="0.4" style="mix-blend-mode: multiply;isolation: isolate"/>
          <path id="Tracé_514" data-name="Tracé 514" d="M366.4,368.16s15.272,8.937,33.346,7.087C399.751,375.247,377.239,381.178,366.4,368.16Z" transform="translate(-301.687 -343.052)" fill="#e6b183" opacity="0.4" style="mix-blend-mode: multiply;isolation: isolate"/>
          <path id="Tracé_515" data-name="Tracé 515" d="M360.483,375.092s8.351,18.958,7.7,25.846C368.182,400.939,370.631,387.888,360.483,375.092Z" transform="translate(-303.207 -341.273)" fill="#e6b183" opacity="0.4" style="mix-blend-mode: multiply;isolation: isolate"/>
        </g>
      </g>
      <path id="Tracé_516" data-name="Tracé 516" d="M345.609,284.014s5.254,47.957,8.1,46.98,8.213-22.8-8.1-46.98" transform="translate(13.641 0)" fill="#79bcff"/>
      <path id="Tracé_517" data-name="Tracé 517" d="M384.013,298.04c-4.923,16.737,6.143,33.65,8.633,50.916,1.443,10-.035,20.219,1.008,30.268.784,7.554,2.989,15.114,1.841,22.62s-7.26,15.111-14.817,14.363c-8.218-.813-12.339-10.113-14.808-17.993l-8.19-26.123c-1.676-5.349-3.373-10.89-2.735-16.457.547-4.777,2.776-9.189,3.878-13.87,3.783-16.071-6-33.117-1.893-49.108" transform="translate(16.003 2.219)" fill="#79bcff"/>
      <path id="Tracé_518" data-name="Tracé 518" d="M381.746,304.861c-1.077,6.02-.077,12.222,1.447,18.144a6.258,6.258,0,0,0,1.142,2.623,1.974,1.974,0,0,0,3.628-1.278,6.521,6.521,0,0,0-.532-2.265q-2.436-6.664-4.872-13.327a7.535,7.535,0,0,1-.671-4.162" transform="translate(22.804 5.285)" fill="#79bcff"/>
      <path id="Tracé_519" data-name="Tracé 519" d="M484.371,409.119s-41.406-8.736-53.341-15.889c-9.319-5.585-24.3-24.543-32.913-28.373-11.273-5.011-29.057-5.676-37.737-8.229s-7.209,9.672,6.242,13.053c6.46,1.623,8.653,1.529,8.653,1.529s-23.811-3.121-27.894-3.121-6.92,2.984-7.43,9.109c0,0-4.712-.547-6.171,2.129-2.129,3.9-2.268,5.508-1.49,7.164A33.068,33.068,0,0,0,334.51,390s-1.5,7.595,2.864,9.475c6.094,2.625,20.028,6.945,20.028,6.945l-17.581-6.129s-6.222,4.911,11.2,13.364c14.47,7.023,26.736,11.756,29.507,12.2,9.37,1.5,37.17-1.135,37.17-1.135l49.085,26.387,17.591-41.992" transform="translate(10.11 18.555)" fill="#e6b183"/>
      <path id="Tracé_520" data-name="Tracé 520" d="M338.3,372.925s16.6,2.412,20.855,2.412a69.516,69.516,0,0,1,7.027.312,20.305,20.305,0,0,0-7.027-1.375C355,374.167,338.3,372.925,338.3,372.925Z" transform="translate(11.764 22.829)" fill="#e6b183" opacity="0.4" style="mix-blend-mode: multiply;isolation: isolate"/>
      <path id="Tracé_521" data-name="Tracé 521" d="M333.968,383.114s11.188,3.438,14.8,4.5,10.928,2.6,10.928,2.6a56.214,56.214,0,0,0-10.147-3.323C345.3,386.145,333.968,383.114,333.968,383.114Z" transform="translate(10.652 25.445)" fill="#e6b183" opacity="0.4" style="mix-blend-mode: multiply;isolation: isolate"/>
      <path id="Tracé_522" data-name="Tracé 522" d="M338.194,391.3s13.75,4.426,15.027,4.693,8.246,2.607,8.246,2.607-10.374-2.979-13.619-3.724A77.593,77.593,0,0,1,338.194,391.3Z" transform="translate(11.737 27.547)" fill="#e6b183" opacity="0.4" style="mix-blend-mode: multiply;isolation: isolate"/>
      <path id="Tracé_523" data-name="Tracé 523" d="M381.391,408.841a73.381,73.381,0,0,0,15.854.852c7.128-.638,10.107-1.915,10.107-1.915S385.966,410.012,381.391,408.841Z" transform="translate(22.828 31.778)" fill="#e6b183" opacity="0.4" style="mix-blend-mode: multiply;isolation: isolate"/>
      <path id="Tracé_524" data-name="Tracé 524" d="M355.743,366.054c-3.91,1.624-7.293,4.268-10.625,6.88a5.6,5.6,0,0,0-1.856,2.04,1.92,1.92,0,0,0,.659,2.444c1.159.583,2.97-.455,3.677.632-2.609,2.913-4.768,6.4-5.263,10.284s.968,8.166,4.273,10.256a2.961,2.961,0,0,0,2.5.53c1.269-.459,1.567-2.074,1.787-3.4a22.818,22.818,0,0,1,1.214-4.474c.346-.9,1.052-1.945,1.993-1.739.681.15,1.029.877,1.4,1.468.665,1.062,1.986,1.942,3.129,1.429,1.462-.657,1.284-2.786.715-4.286-1.341-3.531-3.5-6.7-4.871-10.224s-1.3-8.8,1.266-11.836" transform="translate(12.776 21.065)" fill="#79bcff"/>
      <path id="Tracé_525" data-name="Tracé 525" d="M397.337,373a10.583,10.583,0,0,1,1.326,7.179c-.646,3.7-3.268,7.205-2.4,10.858.24,1.016.917,2.081,1.957,2.176,1.718.157,2.531-2.261,4.167-2.809,1.683-.562,3.374,1.233,3.5,3s-.75,3.431-1.428,5.07a24.629,24.629,0,0,0-1.734,11.863c.182,1.78,1.154,4.008,2.929,3.8,1.41-.166,2.085-1.781,2.48-3.144l3.457-11.939,3.4,5.942c.344.6.943,1.3,1.587,1.043a1.337,1.337,0,0,0,.62-.709c1.84-3.78.008-8.277-2.131-11.9a70.589,70.589,0,0,0-17.642-19.946" transform="translate(26.602 22.849)" fill="#79bcff"/>
      <path id="Tracé_526" data-name="Tracé 526" d="M357.726,354.963c-4.368-.009-9.734.137-13.437,2.453a16.293,16.293,0,0,0-6.657,8.293c-.627,1.766-.586,4.3,1.2,4.875,1.891.607,3.353-1.621,4.239-3.4,2.947-5.906,8.16-11.067,14.658-12.224" transform="translate(11.499 18.217)" fill="#79bcff"/>
      <path id="Tracé_527" data-name="Tracé 527" d="M353.742,355.153c.018,1.033-1.573,1.082-2.48.586-3.212-1.758-4.95-5.314-6.3-8.718-1.39-3.506-2.514-7.718-.412-10.852a1.781,1.781,0,0,1,1.017-.836,1.881,1.881,0,0,1,1.663.846c4.614,5.353,2.219,13.362,6.513,18.975" transform="translate(13.07 13.171)" fill="#79bcff"/>
      <path id="Tracé_528" data-name="Tracé 528" d="M348.2,352.869c-2.158-1.783-4.213-2.534-6.936-1.888a24.226,24.226,0,0,0-7.507,3.668c-1.517.993-3.216,2.52-2.727,4.267a2.752,2.752,0,0,0,1.487,1.659c2.436,1.177,5.2-.641,7.284-2.36,2.669-2.2,4.456-6.187,8.4-5.346" transform="translate(9.876 17.136)" fill="#79bcff"/>
      <path id="Tracé_529" data-name="Tracé 529" d="M362.239,372.893c-3.559-5.733-3.044-13.082-1.534-19.659s3.9-13.084,3.717-19.829c-.192-6.971-3.121-13.528-4.944-20.259s-2.387-14.474,1.643-20.166" transform="translate(16.844 2.302)" fill="none" stroke="#86d2ea" stroke-miterlimit="10" stroke-width="3" opacity="0.5"/>
      <path id="Tracé_530" data-name="Tracé 530" d="M349.375,370.046a25.853,25.853,0,0,0-4.308,3.253.972.972,0,0,0-.4.674c.02.725,1.146.493,1.859.628a1.672,1.672,0,0,1,1.205,1.578,4.605,4.605,0,0,1-.5,2.059c-1.181,2.781-2.627,5.478-3.33,8.418s-.563,6.259,1.225,8.7" transform="translate(13.102 22.089)" fill="none" stroke="#86d2ea" stroke-miterlimit="10" stroke-width="3"/>
      <path id="Tracé_531" data-name="Tracé 531" d="M338.677,366.5a2.318,2.318,0,0,1,.354-3.529" transform="translate(11.693 20.274)" fill="none" stroke="#86d2ea" stroke-miterlimit="10" stroke-width="3"/>
      <path id="Tracé_532" data-name="Tracé 532" d="M345.288,337.711a5.344,5.344,0,0,0-1.107,2.845" transform="translate(13.274 13.787)" fill="none" stroke="#86d2ea" stroke-miterlimit="10" stroke-width="3"/>
      <path id="Tracé_533" data-name="Tracé 533" d="M333.5,357l-.357.357" transform="translate(10.44 18.74)" fill="none" stroke="#86d2ea" stroke-miterlimit="10" stroke-width="3"/>
      <path id="Tracé_534" data-name="Tracé 534" d="M367.165,295.059a10.327,10.327,0,0,0-1.507,8.634" transform="translate(18.696 2.836)" fill="none" stroke="#86d2ea" stroke-miterlimit="10" stroke-width="3" opacity="0.5"/>
      <path id="Tracé_535" data-name="Tracé 535" d="M376.147,322.952c.207,3.447,1.5,6.721,2.54,10.014a73.176,73.176,0,0,1,2.263,34.846" transform="translate(21.482 9.998)" fill="none" stroke="#86d2ea" stroke-miterlimit="10" stroke-width="3" opacity="0.5"/>
      <path id="Tracé_536" data-name="Tracé 536" d="M397.348,384.7,397,386.379" transform="translate(26.835 25.851)" fill="none" stroke="#86d2ea" stroke-miterlimit="10" stroke-width="3"/>
      <path id="Tracé_537" data-name="Tracé 537" d="M402.69,402.642a9.581,9.581,0,0,1,.323-3.714" transform="translate(28.282 29.505)" fill="none" stroke="#86d2ea" stroke-miterlimit="10" stroke-width="3"/>
      <path id="Tracé_538" data-name="Tracé 538" d="M411.265,394.366" transform="translate(30.499 28.334)" fill="none" stroke="#86d2ea" stroke-miterlimit="10" stroke-width="3"/>
      <path id="Tracé_539" data-name="Tracé 539" d="M384.011,479.409A88.808,88.808,0,1,1,472.818,390.6a88.809,88.809,0,0,1-88.808,88.808" transform="translate(0.699 4.565)" fill="none"/>
      <circle id="Ellipse_24" data-name="Ellipse 24" cx="24.738" cy="24.738" r="24.738" transform="translate(292.481 351.067) rotate(-76.603)" fill="#f55656"/>
    </g>
    <path id="Tracé_540" data-name="Tracé 540" d="M1403.212,3468.92s18.146,63.405-18.505,93.368,34.4,25.633,34.4,25.633l27.719-16.679-5.37-60.574-13.643-16.9-13.489-26.655Z" transform="matrix(0.999, -0.035, 0.035, 0.999, -185.457, 141.375)" fill="#fff"/>
    <path id="Tracé_541" data-name="Tracé 541" d="M1291.92,3408.638s27.857-8.682,48.521-2.191,5.734-26.568,5.734-26.568l-54.255-5-10,12.288Z" transform="translate(-65 101)" fill="#fff"/>
    <text id="_5" data-name="5" transform="translate(1183 3516.734)" fill="#fff" font-size="31" font-family="Europa-Bold" font-weight="700"><tspan x="0" y="24">5</tspan></text>
    <g id="Groupe_945" data-name="Groupe 945" transform="translate(1040.901 3202.928)">
      <circle id="Ellipse_25" data-name="Ellipse 25" cx="89.42" cy="89.42" r="89.42" transform="translate(495.259 302.516)" fill="#e4f1fb" opacity="0.35"/>
      <path id="Tracé_542" data-name="Tracé 542" d="M557.507,482.948s11.965-45.332,16.181-54.055,14.9-20.839,26.764-38.356c10.19-15.045,18.387-25.816,18.387-25.816s.115-6.732-5.317-2.542c-7.719,5.954-20.272,22.991-22.933,22.238-2.646-.749,22.4-38.233,21.755-43.209-.51-3.938-4.631-7.112-10.679,2.64-5.588,9.007-19.122,30.65-20.049,29.393-1.281-1.739,9.856-33.124,13.3-44.038,1.384-4.383-7.527-9.532-11.31.809-3.9,10.65-14.84,40.033-16.392,40.309-1.049.185-.1-13.132.219-21.53.867-22.412,1.74-24.671-3.015-25.807-8.221-1.964-11.177,68.021-19.018,58.853-.906-1.059.086-6.4,1.179-10.7,2.643-10.414-1.445-18.6-6.762-19.282s-.431,5.635-4.119,16.382c-3.156,9.2-3.932,22.236-3.031,28.935.966,7.185,6.815,15.065,7.666,20.954,2.027,14.017-24.095,50.078-24.095,50.078l41.268,14.747" transform="translate(6.482 6.336)" fill="#e19e68"/>
      <path id="Tracé_543" data-name="Tracé 543" d="M568.166,403.052s-8.75,3.065-21.386.192C546.78,403.244,559.7,410.108,568.166,403.052Z" transform="translate(14.589 27.598)" fill="#e6b183" opacity="0.4" style="mix-blend-mode: multiply;isolation: isolate"/>
      <path id="Tracé_544" data-name="Tracé 544" d="M545.822,371.632s6.742,16.492,2.335,34.247C548.157,405.879,557.261,384.28,545.822,371.632Z" transform="translate(14.334 19.259)" fill="#e6b183" opacity="0.4" style="mix-blend-mode: multiply;isolation: isolate"/>
      <path id="Tracé_545" data-name="Tracé 545" d="M553.518,366.746s17.715,11.013,24.674,11.339C578.192,378.085,564.835,378.678,553.518,366.746Z" transform="translate(16.377 17.962)" fill="#e6b183" opacity="0.4" style="mix-blend-mode: multiply;isolation: isolate"/>
      <path id="Tracé_546" data-name="Tracé 546" d="M604.613,322.467s-50.281,4-60.565,9.141,13.141,38.283,13.713,66.851-32.569,46.853-17.713,62.28,29.712,16.569,58.28-1.143,6.285-46.281,10.856-67.423S604.613,322.467,604.613,322.467Z" transform="translate(11.784 6.209)" fill="#fdf8ff"/>
      <path id="Tracé_547" data-name="Tracé 547" d="M644.875,500.3s-30.883-60.807-31.886-70.259,2.12-27.873.654-48.579c-1.264-17.847-2.33-27.659-2.33-27.659s-3.411-5.665-5.792.644c-3.383,8.967-1.338,28.678-2.308,30.174-1.984,3.057-3.313-43.033-6.446-46.839-2.482-3.014-7.747-3-7.746,8.257,0,10.4,3.058,34.122,1.625,33.558-1.982-.782-8.982-32.693-11.773-43.571-1.121-4.368-11.29-4.024-9.079,6.55,2.275,10.89,9.467,40.788,8.3,41.825-.785.7-6.578-8.4-9.435-16.912-7-20.864-9.295-22.9-13.882-21.378-7.929,2.635,19.972,58.007,13.054,57.378-2.288-.208-5.751-7.324-7.077-11.479-3.205-10.042-8.248-13.291-13.073-11.1s.464,4.337,2.967,15.2c2.141,9.294,7.637,19.756,11.883,24.864,4.556,5.479,13.036,12.972,16.821,17.432,9.006,10.616,22.245,77.234,22.245,77.234" transform="translate(14.309 9.109)" fill="#e6b183"/>
      <path id="Tracé_548" data-name="Tracé 548" d="M545.334,373.01s2.642-2.231,4.333-1.177,4.326,5.23,3.566,6.727-3.976,2.4-3.976,2.4a24.023,24.023,0,0,0-1.925-4.109A29.843,29.843,0,0,1,545.334,373.01Z" transform="translate(14.205 19.237)" fill="#f9c5a2"/>
      <path id="Tracé_549" data-name="Tracé 549" d="M556.112,344a2.918,2.918,0,0,0-3.181.8c-1.159,1.53-.247,5.7-.157,5.753s5.236-.271,6.08-1.4S557.434,344.447,556.112,344Z" transform="translate(16.066 11.878)" fill="#f9c5a2"/>
      <path id="Tracé_550" data-name="Tracé 550" d="M571.1,334.331s-2.714-.715-4.016,1-.277,6.394-.176,6.457,6,.171,6.428-1.35C573.694,339.164,572.579,334.833,571.1,334.331Z" transform="translate(19.803 9.319)" fill="#f9c5a2"/>
      <path id="Tracé_551" data-name="Tracé 551" d="M586.119,337s-2.4-.915-3.753.52-.885,5.794-.8,5.861,5.439.739,5.982-.6C588,341.653,587.417,337.6,586.119,337Z" transform="translate(23.782 9.991)" fill="#f9c5a2"/>
      <path id="Tracé_552" data-name="Tracé 552" d="M597.428,349.314s-1.637-.844-2.718.075-1.1,4.063-1.04,4.118,3.819.958,4.314.043C598.4,352.783,598.3,349.846,597.428,349.314Z" transform="translate(27.029 13.241)" fill="#f9c5a2"/>
      <g id="Groupe_944" data-name="Groupe 944" transform="translate(534.085 343.85)">
        <path id="Tracé_553" data-name="Tracé 553" d="M542.35,353.448,544,358.625l5.176,1.651L544,361.927,542.35,367.1l-1.651-5.176-5.176-1.651,5.176-1.651Z" transform="translate(-522.484 -329.418)" fill="#fff"/>
        <path id="Tracé_554" data-name="Tracé 554" d="M532.047,394.685l1.651,5.176,5.177,1.651-5.177,1.651-1.651,5.177-1.651-5.177-5.176-1.651,5.176-1.651Z" transform="translate(-525.219 -318.473)" fill="#fff"/>
        <path id="Tracé_555" data-name="Tracé 555" d="M573.135,378.078l1.651,5.176,5.176,1.652-5.176,1.651-1.651,9.251-1.651-9.251-5.176-1.651,5.176-1.652Z" transform="translate(-514.313 -322.881)" fill="#fff"/>
        <path id="Tracé_556" data-name="Tracé 556" d="M601.977,334.458l1.651,5.177,5.177,1.651-5.177,1.651-1.651,9.252-1.651-9.252-5.176-1.651,5.176-1.651Z" transform="translate(-506.658 -334.458)" fill="#fff"/>
      </g>
      <circle id="Ellipse_26" data-name="Ellipse 26" cx="89.42" cy="89.42" r="89.42" transform="translate(495.259 302.516)" fill="none"/>
      <circle id="Ellipse_27" data-name="Ellipse 27" cx="24.908" cy="24.908" r="24.908" transform="translate(491.816 347.532) rotate(-76.603)" fill="#f55656"/>
    </g>
    <path id="Tracé_557" data-name="Tracé 557" d="M1633.478,3560.662s10.015,12.865,50.987,20.561,68.685-25.32,68.685-25.32l23.837,64.067-54.212,20.809-96.54-14.987v-65.13Z" transform="translate(-67 101)" fill="#fff"/>
    <text id="_6" data-name="6" transform="translate(1553.661 3517.734)" fill="#fff" font-size="31" font-family="Europa-Bold" font-weight="700"><tspan x="0" y="24">6</tspan></text>
    <text id="Séchez_vos_mains" data-name="Séchez vos mains" transform="translate(1631 3714.931)" font-size="19" font-family="Europa-Regular" letter-spacing="0.034em"><tspan x="-76.96" y="0">Séchez vos mains</tspan></text>
  </g>
</svg>
