<svg xmlns="http://www.w3.org/2000/svg" width="162.117" height="157.474" viewBox="0 0 162.117 157.474">
  <g id="Groupe_1852" data-name="Groupe 1852" transform="translate(-576.974 -1982.205)">
    <g id="Groupe_1" data-name="Groupe 1" transform="translate(616.299 2043.583)">
      <path id="Tracé_1" data-name="Tracé 1" d="M659.058,2103.182l.839.839a7.874,7.874,0,0,1-6.033,2.7c-4.705,0-8.06-3.728-8.06-8.432s3.354-8.433,8.06-8.433a7.752,7.752,0,0,1,5.8,2.493l-.862.792a6.557,6.557,0,0,0-4.938-2.1c-4.053,0-6.8,3.238-6.8,7.245s2.749,7.244,6.8,7.244A6.731,6.731,0,0,0,659.058,2103.182Z" transform="translate(-645.804 -2089.858)"/>
      <path id="Tracé_2" data-name="Tracé 2" d="M681.6,2098.291a8.068,8.068,0,1,1,8.06,8.432A8.107,8.107,0,0,1,681.6,2098.291Zm1.258,0c0,4.007,2.725,7.244,6.8,7.244s6.8-3.237,6.8-7.244-2.725-7.245-6.8-7.245S682.855,2094.284,682.855,2098.291Z" transform="translate(-661.262 -2089.858)" fill="#fff"/>
      <path id="Tracé_3" data-name="Tracé 3" d="M726.2,2107.123l-6.8-16.772h1.3l5.521,13.86,5.52-13.86H733Z" transform="translate(-677.587 -2090.071)"/>
      <path id="Tracé_4" data-name="Tracé 4" d="M755.971,2090.351h1.211v16.306h-1.211Z" transform="translate(-693.381 -2090.071)"/>
      <path id="Tracé_5" data-name="Tracé 5" d="M778.542,2090.351a8.153,8.153,0,0,1,0,16.306h-4.449v-16.306Zm-.233,15.188a7.035,7.035,0,0,0,0-14.071h-3v14.071Z" transform="translate(-701.207 -2090.071)"/>
    </g>
    <g id="Groupe_3" data-name="Groupe 3" transform="translate(642.446 2070.286)">
      <g id="Groupe_2" data-name="Groupe 2" transform="translate(0 0)">
        <path id="Tracé_6" data-name="Tracé 6" d="M697.319,2137.486H698.6v20.779h-1.544v-18.582l-4.3,3.384-.921-1.188Z" transform="translate(-691.827 -2137.13)"/>
        <path id="Tracé_7" data-name="Tracé 7" d="M733,2149.563a5.924,5.924,0,0,1-2.76.683,6.547,6.547,0,0,1-6.65-6.619,6.65,6.65,0,1,1,13.3-.06,8.239,8.239,0,0,1-1.009,3.74c-1.039,1.959-6.5,11.221-6.5,11.221l-1.246-.8Zm2.286-5.936a5.05,5.05,0,1,0-10.093,0,4.9,4.9,0,0,0,5.046,5.1A4.83,4.83,0,0,0,735.289,2143.627Z" transform="translate(-705.546 -2136.858)"/>
      </g>
    </g>
    <circle id="Ellipse_1" data-name="Ellipse 1" cx="69.597" cy="69.597" r="69.597" transform="translate(588.571 1995.372)" fill="none" stroke="#fff" stroke-miterlimit="10" stroke-width="1" opacity="0.75"/>
    <path id="Tracé_8" data-name="Tracé 8" d="M736.79,2060.814c5.113,36.645-32.1,64.768-64.768,72.722-37.347,9.093-77.835-36.645-81.812-68.745-4.726-38.146,35.137-73.29,73.574-73.29S731.478,2022.745,736.79,2060.814Z" transform="translate(-5.331 -3.798)" fill="none" stroke="#fff" stroke-miterlimit="10" stroke-width="1" opacity="0.3"/>
    <path id="Tracé_9" data-name="Tracé 9" d="M738.043,2058.431c5.586,40.035-35.07,70.76-70.76,79.45-40.8,9.935-85.037-40.035-89.381-75.1-5.163-41.676,38.387-80.071,80.381-80.071S732.24,2016.84,738.043,2058.431Z" transform="translate(0 0)" fill="none" stroke="#fff" stroke-miterlimit="10" stroke-width="1" opacity="0.67"/>
    <path id="Tracé_10" data-name="Tracé 10" d="M713.45,2122.692c-25.146,26.647-69.923,15.312-96.3-5-30.156-23.223-19.893-82.834,2.446-105.787,26.546-27.276,78.388-18.243,102.193,11.455S739.573,2095.011,713.45,2122.692Z" transform="translate(-9.035 -5.562)" fill="none" stroke="#fff" stroke-miterlimit="10" stroke-width="1" opacity="0.4"/>
    <path id="Tracé_11" data-name="Tracé 11" d="M731.389,2088.263c-11.975,36.485-59.5,45.693-93.577,38.181-38.956-8.587-55.793-69.705-44.835-101.436C606,1987.3,659.2,1972.762,695.019,1990.321S743.829,2050.361,731.389,2088.263Z" transform="translate(-5.272 -0.094)" fill="none" stroke="#fff" stroke-miterlimit="10" stroke-width="1"/>
  </g>
</svg>
